vhdl/sim/top/sim_top.vcd
$date
  Sat Aug 20 16:03:38 2016
$end
$version
  GHDL v0
$end
$timescale
  1 fs
$end
$var reg 1 ! mainclk $end
$var reg 1 " corereset $end
$var reg 1 # memready $end
$var reg 1 $ memreset $end
$var reg 1 % memen $end
$var reg 1 & memwe $end
$var reg 8 ' memwdata[7:0] $end
$var reg 8 ( memrdata[7:0] $end
$var reg 16 ) memaddr[15:0] $end
$scope module uut_core $end
$var reg 1 * i_core_clk $end
$var reg 1 + i_core_reset $end
$var reg 1 , i_mem_ready $end
$var reg 8 - i_mem_data[7:0] $end
$var reg 1 . o_mem_reset $end
$var reg 1 / o_mem_en $end
$var reg 1 0 o_mem_we $end
$var reg 8 1 o_mem_data[7:0] $end
$var reg 16 2 o_mem_addr[15:0] $end
$var reg 7 3 state[6:0] $end
$var reg 1 4 en_fetch $end
$var reg 1 5 en_decode $end
$var reg 1 6 en_regread $end
$var reg 1 7 en_alu $end
$var reg 1 8 en_memwrite $end
$var reg 1 9 en_stack $end
$var reg 1 : en_regwrite $end
$var reg 1 ; sb $end
$var reg 8 < aluop[7:0] $end
$var reg 16 = imm[15:0] $end
$var reg 16 > dataa[15:0] $end
$var reg 16 ? datab[15:0] $end
$var reg 16 @ pc[15:0] $end
$var reg 16 A res[15:0] $end
$var reg 1 B regwe $end
$var reg 1 C decdone $end
$var reg 4 D sela[3:0] $end
$var reg 4 E selb[3:0] $end
$var reg 4 F seld[3:0] $end
$var reg 8 G inst[7:0] $end
$var reg 1 H reg_i_en $end
$var reg 1 I reg_i_we $end
$var reg 1 J reg_i_byte $end
$var reg 1 K reg_i_high $end
$var reg 16 L reg_i_data[15:0] $end
$var reg 1 M mem_reset $end
$var reg 1 N mem_en $end
$var reg 1 O mem_we $end
$var reg 1 P mem_ready $end
$var reg 8 Q mem_rdata[7:0] $end
$var reg 8 R mem_wdata[7:0] $end
$var reg 16 S mem_addr[15:0] $end
$var reg 2 T pcop[1:0] $end
$var reg 16 U pcin[15:0] $end
$var reg 1 V stack_i_en $end
$var reg 1 W stack_i_we $end
$var reg 16 X stackin[15:0] $end
$var reg 16 Y stackdata[15:0] $end
$scope module uut_alu $end
$var reg 1 Z i_clk $end
$var reg 1 [ i_en $end
$var reg 8 \ i_aluop[7:0] $end
$var reg 16 ] i_imm[15:0] $end
$var reg 16 ^ i_dataa[15:0] $end
$var reg 16 _ i_datab[15:0] $end
$var reg 16 ` i_pc[15:0] $end
$var reg 1 a o_sb $end
$var reg 16 b o_res[15:0] $end
$var reg 1 c s_sb $end
$var reg 18 d s_res[17:0] $end
$upscope $end
$scope module uut_control_unit $end
$var reg 1 e i_clk $end
$var reg 1 f i_reset $end
$var reg 1 g i_done $end
$var reg 8 h i_aluop[7:0] $end
$var reg 7 i o_state[6:0] $end
$var reg 7 j s_state[6:0] $end
$upscope $end
$scope module uut_decoder $end
$var reg 1 k i_clk $end
$var reg 1 l i_en $end
$var reg 8 m i_inst[7:0] $end
$var reg 1 n o_we $end
$var reg 1 o o_done $end
$var reg 4 p o_sela[3:0] $end
$var reg 4 q o_selb[3:0] $end
$var reg 4 r o_seld[3:0] $end
$var reg 8 s o_aluop[7:0] $end
$var reg 16 t o_imm[15:0] $end
$var reg 1 u s_done $end
$var reg 32 v s_inst[31:0] $end
$var reg 8 w s_aluop[7:0] $end
$var integer 32 x s_count $end
$upscope $end
$scope module uut_regfile $end
$var reg 1 y i_clk $end
$var reg 1 z i_en $end
$var reg 1 { i_we $end
$var reg 1 | i_byte $end
$var reg 1 } i_high $end
$var reg 4 !" i_sela[3:0] $end
$var reg 4 "" i_selb[3:0] $end
$var reg 4 #" i_seld[3:0] $end
$var reg 16 $" i_datad[15:0] $end
$var reg 16 %" o_dataa[15:0] $end
$var reg 16 &" o_datab[15:0] $end
$comment regs is not handled $end
$var reg 16 '" s_dataa[15:0] $end
$var reg 16 (" s_datab[15:0] $end
$upscope $end
$scope module uut_pc_unit $end
$var reg 1 )" i_clk $end
$var reg 2 *" i_op[1:0] $end
$var reg 16 +" i_pc[15:0] $end
$var reg 16 ," o_pc[15:0] $end
$var reg 16 -" s_curpc[15:0] $end
$upscope $end
$scope module uut_stack $end
$var reg 1 ." i_clk $end
$var reg 1 /" i_en $end
$var reg 1 0" i_we $end
$var reg 16 1" i_data[15:0] $end
$var reg 16 2" o_data[15:0] $end
$comment s_stack is not handled $end
$var integer 32 3" s_pointer $end
$var reg 1 4" s_full $end
$var reg 1 5" s_empty $end
$upscope $end
$upscope $end
$scope module uut_memory_control $end
$var reg 1 6" i_mem_clk $end
$var reg 1 7" i_mem_reset $end
$var reg 1 8" i_mem_en $end
$var reg 1 9" i_mem_we $end
$var reg 8 :" i_mem_data[7:0] $end
$var reg 16 ;" i_mem_addr[15:0] $end
$var reg 1 <" o_mem_ready $end
$var reg 8 =" o_mem_data[7:0] $end
$var reg 1 >" s_ram_ready $end
$var reg 8 ?" s_ram_data[7:0] $end
$var integer 32 @" s_output $end
$scope module uut_ram_sim $end
$var reg 1 A" i_clk $end
$var reg 1 B" i_we $end
$var reg 8 C" i_data[7:0] $end
$var reg 16 D" i_addr[15:0] $end
$var reg 1 E" o_ready $end
$var reg 8 F" o_data[7:0] $end
$comment ram is not handled $end
$upscope $end
$upscope $end
$enddefinitions $end
#0
0!
1"
1#
0$
1%
0&
b00000000 '
bUUUUUUUU (
b0000000000000000 )
0*
1+
1,
bUUUUUUUU -
0.
1/
00
b00000000 1
b0000000000000000 2
b0000001 3
14
05
06
07
08
09
0:
0;
b00000000 <
bUUUUUUUUUUUUUUUU =
b0000000000000000 >
b0000000000000000 ?
b0000000000000000 @
b0000000000000000 A
UB
0C
bUUUU D
bUUUU E
bUUUU F
bUUUUUUUU G
0H
0I
0J
0K
b0000000000000000 L
0M
1N
0O
1P
bUUUUUUUU Q
b00000000 R
b0000000000000000 S
b11 T
b0000000000000000 U
0V
0W
b0000000000000000 X
bUUUUUUUUUUUUUUUU Y
0Z
0[
b00000000 \
bUUUUUUUUUUUUUUUU ]
b0000000000000000 ^
b0000000000000000 _
b0000000000000000 `
0a
b0000000000000000 b
0c
b000000000000000000 d
0e
1f
0g
b00000000 h
b0000001 i
b0000001 j
0k
0l
bUUUUUUUU m
Un
0o
bUUUU p
bUUUU q
bUUUU r
b00000000 s
bUUUUUUUUUUUUUUUU t
0u
b00000000000000000000000000000000 v
b00000000 w
b0 x
0y
0z
0{
0|
0}
bUUUU !"
bUUUU ""
bUUUU #"
b0000000000000000 $"
b0000000000000000 %"
b0000000000000000 &"
b0000000000000000 '"
b0000000000000000 ("
0)"
b11 *"
b0000000000000000 +"
b0000000000000000 ,"
b0000000000000000 -"
0."
0/"
00"
b0000000000000000 1"
bUUUUUUUUUUUUUUUU 2"
b11111111 3"
04"
05"
06"
07"
18"
09"
b00000000 :"
b0000000000000000 ;"
1<"
bUUUUUUUU ="
1>"
bUUUUUUUU ?"
b1 @"
0A"
0B"
b00000000 C"
b0000000000000000 D"
1E"
bUUUUUUUU F"
#5000000
1!
0%
b01110111 (
1*
b01110111 -
0/
b0000000 3
04
b01110111 G
0N
b01110111 Q
1Z
1e
b0000000 i
b0000000 j
1k
b01110111 m
1y
1)"
1."
16"
08"
b01110111 ="
b01110111 ?"
1A"
b01110111 F"
#10000000
0!
0"
0*
0+
b00 T
0Z
0e
0f
0k
0y
0)"
b00 *"
0."
06"
0A"
#15000000
1!
1%
1*
1/
b0000001 3
14
1N
1Z
1e
b0000001 i
b0000001 j
1k
1y
1)"
1."
16"
18"
1A"
#20000000
0!
0*
0Z
0e
0k
0y
0)"
0."
06"
0A"
#25000000
1!
0%
1*
0/
b0000010 3
04
15
0N
b01 T
1Z
1e
b0000010 i
b0000010 j
1k
1l
1y
1)"
b01 *"
1."
16"
08"
1A"
#30000000
0!
0*
0Z
0e
0k
0y
0)"
0."
06"
0A"
#35000000
1!
1%
b0000000000000001 )
1*
1/
b0000000000000001 2
b0000001 3
14
05
b01110111 <
b0000000000000001 @
0B
1N
b0000000000000001 S
b00 T
1Z
b01110111 \
b0000000000000001 `
1e
b01110111 h
b0000001 i
b0000001 j
1k
0l
0n
b01110111 s
b01110111000000000000000000000000 v
b01110111 w
b1 x
1y
1)"
b00 *"
b0000000000000001 ,"
b0000000000000001 -"
1."
16"
18"
b0000000000000001 ;"
1A"
b0000000000000001 D"
#40000000
0!
0*
0Z
0e
0k
0y
0)"
0."
06"
0A"
#45000000
1!
0%
b00000000 (
1*
b00000000 -
0/
b0000010 3
04
15
b00000000 G
0N
b00000000 Q
b01 T
1Z
1e
b0000010 i
b0000010 j
1k
1l
b00000000 m
1y
1)"
b01 *"
1."
16"
08"
b00000000 ="
b00000000 ?"
1A"
b00000000 F"
#50000000
0!
0*
0Z
0e
0k
0y
0)"
0."
06"
0A"
#55000000
1!
1%
b0000000000000010 )
1*
1/
b0000000000000010 2
b0000001 3
14
05
b0000000000000010 @
b0000 D
b0000 F
1N
b0000000000000010 S
b00 T
1Z
b0000000000000010 `
1e
b0000001 i
b0000001 j
1k
0l
b0000 p
b0000 r
b10 x
1y
b0000 !"
b0000 #"
1)"
b00 *"
b0000000000000010 ,"
b0000000000000010 -"
1."
16"
18"
b0000000000000010 ;"
1A"
b0000000000000010 D"
#60000000
0!
0*
0Z
0e
0k
0y
0)"
0."
06"
0A"
#65000000
1!
0%
1*
0/
b0000010 3
04
15
0N
b01 T
1Z
1e
b0000010 i
b0000010 j
1k
1l
1y
1)"
b01 *"
1."
16"
08"
1A"
#70000000
0!
0*
0Z
0e
0k
0y
0)"
0."
06"
0A"
#75000000
1!
1%
b0000000000000011 )
1*
1/
b0000000000000011 2
b0000001 3
14
05
b00000000UUUUUUUU =
b0000000000000011 @
b0000 E
1N
b0000000000000011 S
b00 T
1Z
b00000000UUUUUUUU ]
b0000000000000011 `
1e
b0000001 i
b0000001 j
1k
0l
b0000 q
b00000000UUUUUUUU t
b11 x
1y
b0000 ""
1)"
b00 *"
b0000000000000011 ,"
b0000000000000011 -"
1."
16"
18"
b0000000000000011 ;"
1A"
b0000000000000011 D"
#80000000
0!
0*
0Z
0e
0k
0y
0)"
0."
06"
0A"
#85000000
1!
0%
b00000101 (
1*
b00000101 -
0/
b0000010 3
04
15
b00000101 G
0N
b00000101 Q
b01 T
1Z
1e
b0000010 i
b0000010 j
1k
1l
b00000101 m
1y
1)"
b01 *"
1."
16"
08"
b00000101 ="
b00000101 ?"
1A"
b00000101 F"
#90000000
0!
0*
0Z
0e
0k
0y
0)"
0."
06"
0A"
#95000000
1!
1%
b0000000000000100 )
1*
1/
b0000000000000100 2
b0000001 3
14
05
b0000000000000101 =
b0000000000000100 @
1C
1N
b0000000000000100 S
b00 T
1Z
b0000000000000101 ]
b0000000000000100 `
1e
1g
b0000001 i
b0000001 j
1k
0l
1o
b0000000000000101 t
1u
b01110111000000000000000000000101 v
b100 x
1y
1)"
b00 *"
b0000000000000100 ,"
b0000000000000100 -"
1."
16"
18"
b0000000000000100 ;"
1A"
b0000000000000100 D"
#100000000
0!
0*
0Z
0e
0k
0y
0)"
0."
06"
0A"
#105000000
1!
0%
b10010000 (
1*
b10010000 -
0/
b0000010 3
04
15
b10010000 G
0N
b10010000 Q
1Z
1e
b0000010 i
b0000010 j
1k
1l
b10010000 m
1y
1)"
1."
16"
08"
b10010000 ="
b10010000 ?"
1A"
b10010000 F"
#110000000
0!
0*
0Z
0e
0k
0y
0)"
0."
06"
0A"
#115000000
1!
1*
b0000100 3
05
16
0C
1H
b00 T
1Z
1e
0g
b0000100 i
b0000100 j
1k
0l
0o
0u
b0 x
1y
1z
1)"
b00 *"
1."
16"
1A"
#120000000
0!
0*
0Z
0e
0k
0y
0)"
0."
06"
0A"
#125000000
1!
1*
b0001000 3
06
17
0H
1Z
1[
1e
b0001000 i
b0001000 j
1k
1y
0z
1)"
1."
16"
1A"
#130000000
0!
0*
0Z
0e
0k
0y
0)"
0."
06"
0A"
#135000000
1!
1*
b1000000 3
07
1:
1;
b0000000000000101 A
1H
b0000000000000101 L
b10 T
b0000000000000101 U
1Z
0[
1a
b0000000000000101 b
1c
b000000000000000101 d
1e
b1000000 i
b1000000 j
1k
1y
1z
b0000000000000101 $"
1)"
b10 *"
b0000000000000101 +"
1."
16"
1A"
#140000000
0!
0*
0Z
0e
0k
0y
0)"
0."
06"
0A"
#145000000
1!
1%
b0000000000000101 )
1*
1/
b0000000000000101 2
b0000001 3
14
0:
b0000000000000101 @
0H
1N
b0000000000000101 S
b00 T
1Z
b0000000000000101 `
1e
b0000001 i
b0000001 j
1k
1y
0z
1)"
b00 *"
b0000000000000101 ,"
b0000000000000101 -"
1."
16"
18"
b0000000000000101 ;"
1A"
b0000000000000101 D"
#150000000
0!
0*
0Z
0e
0k
0y
0)"
0."
06"
0A"
#155000000
1!
0%
b00111011 (
1*
b00111011 -
0/
b0000010 3
04
15
b00111011 G
0N
b00111011 Q
b01 T
1Z
1e
b0000010 i
b0000010 j
1k
1l
b00111011 m
1y
1)"
b01 *"
1."
16"
08"
b00111011 ="
b00111011 ?"
1A"
b00111011 F"
#160000000
0!
0*
0Z
0e
0k
0y
0)"
0."
06"
0A"
#165000000
1!
1%
b0000000000000110 )
1*
1/
b0000000000000110 2
b0000001 3
14
05
b00111011 <
b0000000000000110 @
1B
1N
b0000000000000110 S
b00 T
1Z
b00111011 \
b0000000000000110 `
1e
b00111011 h
b0000001 i
b0000001 j
1k
0l
1n
b00111011 s
b00111011000000000000000000000000 v
b00111011 w
b1 x
1y
1)"
b00 *"
b0000000000000110 ,"
b0000000000000110 -"
1."
16"
18"
b0000000000000110 ;"
1A"
b0000000000000110 D"
#170000000
0!
0*
0Z
0e
0k
0y
0)"
0."
06"
0A"
#175000000
1!
0%
b01000000 (
1*
b01000000 -
0/
b0000010 3
04
15
b01000000 G
0N
b01000000 Q
b01 T
1Z
1e
b0000010 i
b0000010 j
1k
1l
b01000000 m
1y
1)"
b01 *"
1."
16"
08"
b01000000 ="
b01000000 ?"
1A"
b01000000 F"
#180000000
0!
0*
0Z
0e
0k
0y
0)"
0."
06"
0A"
#185000000
1!
1%
b0000000000000111 )
1*
1/
b0000000000000111 2
b0000001 3
14
05
b0000000000000111 @
b0100 F
1N
b0000000000000111 S
b00 T
1Z
b0000000000000111 `
1e
b0000001 i
b0000001 j
1k
0l
b0100 r
b00111011010000000000000000000000 v
b10 x
1y
b0100 #"
1)"
b00 *"
b0000000000000111 ,"
b0000000000000111 -"
1."
16"
18"
b0000000000000111 ;"
1A"
b0000000000000111 D"
#190000000
0!
0*
0Z
0e
0k
0y
0)"
0."
06"
0A"
#195000000
1!
0%
b10111110 (
1*
b10111110 -
0/
b0000010 3
04
15
b10111110 G
0N
b10111110 Q
b01 T
1Z
1e
b0000010 i
b0000010 j
1k
1l
b10111110 m
1y
1)"
b01 *"
1."
16"
08"
b10111110 ="
b10111110 ?"
1A"
b10111110 F"
#200000000
0!
0*
0Z
0e
0k
0y
0)"
0."
06"
0A"
#205000000
1!
1%
b0000000000001000 )
1*
1/
b0000000000001000 2
b0000001 3
14
05
b1011111000000101 =
b0000000000001000 @
b1011 E
1N
b0000000000001000 S
b00 T
1Z
b1011111000000101 ]
b0000000000001000 `
1e
b0000001 i
b0000001 j
1k
0l
b1011 q
b1011111000000101 t
b00111011010000001011111000000000 v
b11 x
1y
b1011 ""
1)"
b00 *"
b0000000000001000 ,"
b0000000000001000 -"
1."
16"
18"
b0000000000001000 ;"
1A"
b0000000000001000 D"
#210000000
0!
0*
0Z
0e
0k
0y
0)"
0."
06"
0A"
#215000000
1!
0%
b11101111 (
1*
b11101111 -
0/
b0000010 3
04
15
b11101111 G
0N
b11101111 Q
b01 T
1Z
1e
b0000010 i
b0000010 j
1k
1l
b11101111 m
1y
1)"
b01 *"
1."
16"
08"
b11101111 ="
b11101111 ?"
1A"
b11101111 F"
#220000000
0!
0*
0Z
0e
0k
0y
0)"
0."
06"
0A"
#225000000
1!
1%
b0000000000001001 )
1*
1/
b0000000000001001 2
b0000001 3
14
05
b1011111011101111 =
b0000000000001001 @
1C
1N
b0000000000001001 S
b00 T
1Z
b1011111011101111 ]
b0000000000001001 `
1e
1g
b0000001 i
b0000001 j
1k
0l
1o
b1011111011101111 t
1u
b00111011010000001011111011101111 v
b100 x
1y
1)"
b00 *"
b0000000000001001 ,"
b0000000000001001 -"
1."
16"
18"
b0000000000001001 ;"
1A"
b0000000000001001 D"
#230000000
0!
0*
0Z
0e
0k
0y
0)"
0."
06"
0A"
#235000000
1!
0%
b00111011 (
1*
b00111011 -
0/
b0000010 3
04
15
b00111011 G
0N
b00111011 Q
1Z
1e
b0000010 i
b0000010 j
1k
1l
b00111011 m
1y
1)"
1."
16"
08"
b00111011 ="
b00111011 ?"
1A"
b00111011 F"
#240000000
0!
0*
0Z
0e
0k
0y
0)"
0."
06"
0A"
#245000000
1!
1*
b0000100 3
05
16
0C
1H
b00 T
1Z
1e
0g
b0000100 i
b0000100 j
1k
0l
0o
0u
b0 x
1y
1z
1)"
b00 *"
1."
16"
1A"
#250000000
0!
0*
0Z
0e
0k
0y
0)"
0."
06"
0A"
#255000000
1!
1*
b0001000 3
06
17
0H
1Z
1[
1e
b0001000 i
b0001000 j
1k
1y
0z
1)"
1."
16"
1A"
#260000000
0!
0*
0Z
0e
0k
0y
0)"
0."
06"
0A"
#265000000
1!
1*
b1000000 3
07
1:
0;
b1011111011101111 A
1H
1I
b1011111011101111 L
b1011111011101111 U
1Z
0[
0a
b1011111011101111 b
0c
b001011111011101111 d
1e
b1000000 i
b1000000 j
1k
1y
1z
1{
b1011111011101111 $"
1)"
b1011111011101111 +"
1."
16"
1A"
#270000000
0!
0*
0Z
0e
0k
0y
0)"
0."
06"
0A"
#275000000
1!
1%
1*
1/
b0000001 3
14
0:
0H
0I
1N
1Z
1e
b0000001 i
b0000001 j
1k
1y
0z
0{
1)"
1."
16"
18"
1A"
#280000000
0!
0*
0Z
0e
0k
0y
0)"
0."
06"
0A"
#285000000
1!
0%
1*
0/
b0000010 3
04
15
0N
b01 T
1Z
1e
b0000010 i
b0000010 j
1k
1l
1y
1)"
b01 *"
1."
16"
08"
1A"
#290000000
0!
0*
0Z
0e
0k
0y
0)"
0."
06"
0A"
#295000000
1!
1%
b0000000000001010 )
1*
1/
b0000000000001010 2
b0000001 3
14
05
b0000000000001010 @
1N
b0000000000001010 S
b00 T
1Z
b0000000000001010 `
1e
b0000001 i
b0000001 j
1k
0l
b00111011000000000000000000000000 v
b1 x
1y
1)"
b00 *"
b0000000000001010 ,"
b0000000000001010 -"
1."
16"
18"
b0000000000001010 ;"
1A"
b0000000000001010 D"
#300000000
0!
0*
0Z
0e
0k
0y
0)"
0."
06"
0A"
#305000000
1!
0%
b01010000 (
1*
b01010000 -
0/
b0000010 3
04
15
b01010000 G
0N
b01010000 Q
b01 T
1Z
1e
b0000010 i
b0000010 j
1k
1l
b01010000 m
1y
1)"
b01 *"
1."
16"
08"
b01010000 ="
b01010000 ?"
1A"
b01010000 F"
#310000000
0!
0*
0Z
0e
0k
0y
0)"
0."
06"
0A"
#315000000
1!
1%
b0000000000001011 )
1*
1/
b0000000000001011 2
b0000001 3
14
05
b0000000000001011 @
b0101 F
1N
b0000000000001011 S
b00 T
1Z
b0000000000001011 `
1e
b0000001 i
b0000001 j
1k
0l
b0101 r
b00111011010100000000000000000000 v
b10 x
1y
b0101 #"
1)"
b00 *"
b0000000000001011 ,"
b0000000000001011 -"
1."
16"
18"
b0000000000001011 ;"
1A"
b0000000000001011 D"
#320000000
0!
0*
0Z
0e
0k
0y
0)"
0."
06"
0A"
#325000000
1!
0%
b11011110 (
1*
b11011110 -
0/
b0000010 3
04
15
b11011110 G
0N
b11011110 Q
b01 T
1Z
1e
b0000010 i
b0000010 j
1k
1l
b11011110 m
1y
1)"
b01 *"
1."
16"
08"
b11011110 ="
b11011110 ?"
1A"
b11011110 F"
#330000000
0!
0*
0Z
0e
0k
0y
0)"
0."
06"
0A"
#335000000
1!
1%
b0000000000001100 )
1*
1/
b0000000000001100 2
b0000001 3
14
05
b1101111011101111 =
b0000000000001100 @
b1101 E
1N
b0000000000001100 S
b00 T
1Z
b1101111011101111 ]
b0000000000001100 `
1e
b0000001 i
b0000001 j
1k
0l
b1101 q
b1101111011101111 t
b00111011010100001101111000000000 v
b11 x
1y
b1101 ""
1)"
b00 *"
b0000000000001100 ,"
b0000000000001100 -"
1."
16"
18"
b0000000000001100 ;"
1A"
b0000000000001100 D"
#340000000
0!
0*
0Z
0e
0k
0y
0)"
0."
06"
0A"
#345000000
1!
0%
b10101101 (
1*
b10101101 -
0/
b0000010 3
04
15
b10101101 G
0N
b10101101 Q
b01 T
1Z
1e
b0000010 i
b0000010 j
1k
1l
b10101101 m
1y
1)"
b01 *"
1."
16"
08"
b10101101 ="
b10101101 ?"
1A"
b10101101 F"
#350000000
0!
0*
0Z
0e
0k
0y
0)"
0."
06"
0A"
#355000000
1!
1%
b0000000000001101 )
1*
1/
b0000000000001101 2
b0000001 3
14
05
b1101111010101101 =
b0000000000001101 @
1C
1N
b0000000000001101 S
b00 T
1Z
b1101111010101101 ]
b0000000000001101 `
1e
1g
b0000001 i
b0000001 j
1k
0l
1o
b1101111010101101 t
1u
b00111011010100001101111010101101 v
b100 x
1y
1)"
b00 *"
b0000000000001101 ,"
b0000000000001101 -"
1."
16"
18"
b0000000000001101 ;"
1A"
b0000000000001101 D"
#360000000
0!
0*
0Z
0e
0k
0y
0)"
0."
06"
0A"
#365000000
1!
0%
b10011001 (
1*
b10011001 -
0/
b0000010 3
04
15
b10011001 G
0N
b10011001 Q
1Z
1e
b0000010 i
b0000010 j
1k
1l
b10011001 m
1y
1)"
1."
16"
08"
b10011001 ="
b10011001 ?"
1A"
b10011001 F"
#370000000
0!
0*
0Z
0e
0k
0y
0)"
0."
06"
0A"
#375000000
1!
1*
b0000100 3
05
16
0C
1H
b00 T
1Z
1e
0g
b0000100 i
b0000100 j
1k
0l
0o
0u
b0 x
1y
1z
1)"
b00 *"
1."
16"
1A"
#380000000
0!
0*
0Z
0e
0k
0y
0)"
0."
06"
0A"
#385000000
1!
1*
b0001000 3
06
17
0H
1Z
1[
1e
b0001000 i
b0001000 j
1k
1y
0z
1)"
1."
16"
1A"
#390000000
0!
0*
0Z
0e
0k
0y
0)"
0."
06"
0A"
#395000000
1!
1*
b1000000 3
07
1:
b1101111010101101 A
1H
1I
b1101111010101101 L
b1101111010101101 U
1Z
0[
b1101111010101101 b
b001101111010101101 d
1e
b1000000 i
b1000000 j
1k
1y
1z
1{
b1101111010101101 $"
1)"
b1101111010101101 +"
1."
16"
1A"
#400000000
0!
0*
0Z
0e
0k
0y
0)"
0."
06"
0A"
#405000000
1!
1%
1*
1/
b0000001 3
14
0:
0H
0I
1N
1Z
1e
b0000001 i
b0000001 j
1k
1y
0z
0{
1)"
1."
16"
18"
1A"
#410000000
0!
0*
0Z
0e
0k
0y
0)"
0."
06"
0A"
#415000000
1!
0%
1*
0/
b0000010 3
04
15
0N
b01 T
1Z
1e
b0000010 i
b0000010 j
1k
1l
1y
1)"
b01 *"
1."
16"
08"
1A"
#420000000
0!
0*
0Z
0e
0k
0y
0)"
0."
06"
0A"
#425000000
1!
1%
b0000000000001110 )
1*
1/
b0000000000001110 2
b0000001 3
14
05
b10011001 <
b0000000000001110 @
0B
1N
b0000000000001110 S
b00 T
1Z
b10011001 \
b0000000000001110 `
1e
b10011001 h
b0000001 i
b0000001 j
1k
0l
0n
b10011001 s
b10011001000000000000000000000000 v
b10011001 w
b1 x
1y
1)"
b00 *"
b0000000000001110 ,"
b0000000000001110 -"
1."
16"
18"
b0000000000001110 ;"
1A"
b0000000000001110 D"
#430000000
0!
0*
0Z
0e
0k
0y
0)"
0."
06"
0A"
#435000000
1!
0%
b00000100 (
1*
b00000100 -
0/
b0000010 3
04
15
b00000100 G
0N
b00000100 Q
b01 T
1Z
1e
b0000010 i
b0000010 j
1k
1l
b00000100 m
1y
1)"
b01 *"
1."
16"
08"
b00000100 ="
b00000100 ?"
1A"
b00000100 F"
#440000000
0!
0*
0Z
0e
0k
0y
0)"
0."
06"
0A"
#445000000
1!
1%
b0000000000001111 )
1*
1/
b0000000000001111 2
b0000001 3
14
05
b0000000000001111 @
1C
b0100 D
b0000 F
1N
b0000000000001111 S
b00 T
1Z
b0000000000001111 `
1e
1g
b0000001 i
b0000001 j
1k
0l
1o
b0100 p
b0000 r
1u
b10011001000001000000000000000000 v
b100 x
1y
b0100 !"
b0000 #"
1)"
b00 *"
b0000000000001111 ,"
b0000000000001111 -"
1."
16"
18"
b0000000000001111 ;"
1A"
b0000000000001111 D"
#450000000
0!
0*
0Z
0e
0k
0y
0)"
0."
06"
0A"
#455000000
1!
0%
b10011001 (
1*
b10011001 -
0/
b0000010 3
04
15
b10011001 G
0N
b10011001 Q
1Z
1e
b0000010 i
b0000010 j
1k
1l
b10011001 m
1y
1)"
1."
16"
08"
b10011001 ="
b10011001 ?"
1A"
b10011001 F"
#460000000
0!
0*
0Z
0e
0k
0y
0)"
0."
06"
0A"
#465000000
1!
1*
b0000100 3
05
16
0C
1H
b00 T
1Z
1e
0g
b0000100 i
b0000100 j
1k
0l
0o
0u
b0 x
1y
1z
1)"
b00 *"
1."
16"
1A"
#470000000
0!
0*
0Z
0e
0k
0y
0)"
0."
06"
0A"
#475000000
1!
1*
b0001000 3
06
17
b1011111011101111 >
0H
b1011111011101111 X
1Z
1[
b1011111011101111 ^
1e
b0001000 i
b0001000 j
1k
1y
0z
b1011111011101111 %"
b1011111011101111 '"
1)"
1."
b1011111011101111 1"
16"
1A"
#480000000
0!
0*
0Z
0e
0k
0y
0)"
0."
06"
0A"
#485000000
1!
1*
b0100000 3
07
19
1V
1W
1Z
0[
1e
b0100000 i
b0100000 j
1k
1y
1)"
1."
1/"
10"
16"
1A"
#490000000
0!
0*
0Z
0e
0k
0y
0)"
0."
06"
0A"
#495000000
1!
1*
b1000000 3
09
1:
1H
0V
0W
1Z
1e
b1000000 i
b1000000 j
1k
1y
1z
1)"
1."
0/"
00"
b11111110 3"
16"
1A"
#500000000
0!
0*
0Z
0e
0k
0y
0)"
0."
06"
0A"
#505000000
1!
1%
1*
1/
b0000001 3
14
0:
0H
1N
1Z
1e
b0000001 i
b0000001 j
1k
1y
0z
1)"
1."
16"
18"
1A"
#510000000
0!
0*
0Z
0e
0k
0y
0)"
0."
06"
0A"
#515000000
1!
0%
1*
0/
b0000010 3
04
15
0N
b01 T
1Z
1e
b0000010 i
b0000010 j
1k
1l
1y
1)"
b01 *"
1."
16"
08"
1A"
#520000000
0!
0*
0Z
0e
0k
0y
0)"
0."
06"
0A"
#525000000
1!
1%
b0000000000010000 )
1*
1/
b0000000000010000 2
b0000001 3
14
05
b0000000000010000 @
1N
b0000000000010000 S
b00 T
1Z
b0000000000010000 `
1e
b0000001 i
b0000001 j
1k
0l
b10011001000000000000000000000000 v
b1 x
1y
1)"
b00 *"
b0000000000010000 ,"
b0000000000010000 -"
1."
16"
18"
b0000000000010000 ;"
1A"
b0000000000010000 D"
#530000000
0!
0*
0Z
0e
0k
0y
0)"
0."
06"
0A"
#535000000
1!
0%
b00000101 (
1*
b00000101 -
0/
b0000010 3
04
15
b00000101 G
0N
b00000101 Q
b01 T
1Z
1e
b0000010 i
b0000010 j
1k
1l
b00000101 m
1y
1)"
b01 *"
1."
16"
08"
b00000101 ="
b00000101 ?"
1A"
b00000101 F"
#540000000
0!
0*
0Z
0e
0k
0y
0)"
0."
06"
0A"
#545000000
1!
1%
b0000000000010001 )
1*
1/
b0000000000010001 2
b0000001 3
14
05
b0000000000010001 @
1C
b0101 D
1N
b0000000000010001 S
b00 T
1Z
b0000000000010001 `
1e
1g
b0000001 i
b0000001 j
1k
0l
1o
b0101 p
1u
b10011001000001010000000000000000 v
b100 x
1y
b0101 !"
1)"
b00 *"
b0000000000010001 ,"
b0000000000010001 -"
1."
16"
18"
b0000000000010001 ;"
1A"
b0000000000010001 D"
#550000000
0!
0*
0Z
0e
0k
0y
0)"
0."
06"
0A"
#555000000
1!
0%
b10100001 (
1*
b10100001 -
0/
b0000010 3
04
15
b10100001 G
0N
b10100001 Q
1Z
1e
b0000010 i
b0000010 j
1k
1l
b10100001 m
1y
1)"
1."
16"
08"
b10100001 ="
b10100001 ?"
1A"
b10100001 F"
#560000000
0!
0*
0Z
0e
0k
0y
0)"
0."
06"
0A"
#565000000
1!
1*
b0000100 3
05
16
0C
1H
b00 T
1Z
1e
0g
b0000100 i
b0000100 j
1k
0l
0o
0u
b0 x
1y
1z
1)"
b00 *"
1."
16"
1A"
#570000000
0!
0*
0Z
0e
0k
0y
0)"
0."
06"
0A"
#575000000
1!
1*
b0001000 3
06
17
b1101111010101101 >
0H
b1101111010101101 X
1Z
1[
b1101111010101101 ^
1e
b0001000 i
b0001000 j
1k
1y
0z
b1101111010101101 %"
b1101111010101101 '"
1)"
1."
b1101111010101101 1"
16"
1A"
#580000000
0!
0*
0Z
0e
0k
0y
0)"
0."
06"
0A"
#585000000
1!
1*
b0100000 3
07
19
1V
1W
1Z
0[
1e
b0100000 i
b0100000 j
1k
1y
1)"
1."
1/"
10"
16"
1A"
#590000000
0!
0*
0Z
0e
0k
0y
0)"
0."
06"
0A"
#595000000
1!
1*
b1000000 3
09
1:
1H
0V
0W
1Z
1e
b1000000 i
b1000000 j
1k
1y
1z
1)"
1."
0/"
00"
b11111101 3"
16"
1A"
#600000000
0!
0*
0Z
0e
0k
0y
0)"
0."
06"
0A"
#605000000
1!
1%
1*
1/
b0000001 3
14
0:
0H
1N
1Z
1e
b0000001 i
b0000001 j
1k
1y
0z
1)"
1."
16"
18"
1A"
